﻿Rk,Team,Overall,Home,Road,E,W,A,C,SE,NW,P,SW,Pre,Post,≤3,≥10,Oct,Nov,Dec,Jan,Feb,Mar,Apr
1,Miami Heat,66-16,Apr-37,12月29日,Nov-41,5月25日,4月14日,12月6日,1月15日,8月2日,8月2日,9月1日,36-14,Feb-30,9月3日,Aug-39,1-0,10月3日,10月5日,8月5日,12月1日,1月17日,8月1日
2,Oklahoma City Thunder,60-22,Jul-34,26-15,9月21日,39-13,7月3日,8月2日,6月4日,10月6日,2月16日,5月13日,39-14,8月21日,3月6日,Jun-44,,4月13日,11月2日,11月5日,7月4日,12月5日,6月2日
3,San Antonio Spurs,58-24,Jun-35,23-18,5月25日,33-19,8月2日,9月1日,8月2日,9月9日,12月6日,12月4日,Dec-42,12月16日,9月5日,10月31日,1-0,12月4日,12月4日,12月3日,8月3日,10月4日,3月6日
4,Denver Nuggets,57-25,Mar-38,19-22,11月19日,38-14,5月5日,10-0,4月6日,11月5日,4月14日,5月13日,33-21,4月24日,11月7日,8月28日,0-1,8月8日,9月6日,12月3日,8月4日,2月13日,7月1日
5,Los Angeles Clippers,56-26,Sep-32,24-17,9月21日,35-17,7月3日,8月2日,6月4日,12月6日,11月5日,12月6日,39-17,9月17日,3月5日,Dec-38,1-0,8月6日,16-0,9月7日,8月5日,7月7日,7月1日
6,Memphis Grizzlies,56-26,Sep-32,24-17,8月22日,34-18,8月2日,8月2日,6月4日,12月6日,12月6日,10月6日,33-18,8月23日,6月4日,9月28日,0-1,12月1日,7月7日,10月7日,9月2日,11月6日,7月2日
7,New York Knicks,54-28,10月31日,23-18,37-15,17-13,10月6日,12月6日,3月15日,6月4日,5月5日,6月4日,32-18,10月22日,7月5日,12月31日,,11月4日,10月5日,7月6日,6月5日,12月6日,8月2日
8,Brooklyn Nets,49-33,26-15,23-18,36-16,13-17,11月5日,5月13日,12月6日,5月5日,5月5日,3月7日,31-22,11月18日,9月4日,23-17,,11月4日,5月11日,11月4日,7月5日,8月7日,7月2日
9,Indiana Pacers,49-32,11月30日,19-21,31-20,12月18日,6月11日,3月13日,12月6日,3月7日,7月3日,8月2日,32-21,11月17日,4月9日,27-14,1-0,7月8日,10月5日,9月6日,9月3日,11月5日,2月5日
10,Golden State Warriors,47-35,28-13,19-22,11月19日,28-24,7月3日,5月5日,7月3日,10月8日,9月7日,9月9日,30-22,17-13,5月3日,20-18,1-0,8月6日,12月4日,8月7日,4月8日,9月7日,5月3日
11,Chicago Bulls,45-37,24-17,21-20,34-18,11月19日,5月13日,9月7日,12月6日,4月6日,5月5日,2月8日,30-22,15-15,11月7日,16-16,1-0,6月7日,9月6日,12月4日,5月8日,7月7日,5月5日
12,Houston Rockets,45-37,12月29日,16-25,9月21日,24-28,7月3日,7月3日,7月3日,8月10日,10月8日,6月10日,29-26,11月16日,5月5日,26-13,1-0,6月8日,10月6日,8月9日,6月5日,9月5日,5月4日
13,Los Angeles Lakers,45-37,12月29日,16-25,17-13,28-24,6月4日,6月4日,5月5日,9月9日,8月8日,11月7日,25-29,8月20日,8月5日,18-17,0-2,8月6日,7月7日,5月11日,9月4日,9月6日,7月1日
14,Atlanta Hawks,44-38,25-16,19-22,29-23,15-15,7月11日,11月7日,11月5日,6月4日,5月5日,4月6日,29-22,15-16,5月5日,19-20,,9月5日,10月5日,7月9日,7月4日,8月10日,3月5日
15,Utah Jazz,43-39,11月30日,13-28,17-13,26-26,5月5日,5月5日,7月3日,9月7日,9月9日,8月10日,30-24,13-15,5月7日,19-21,1-0,8月8日,6月9日,10月4日,6月6日,7月9日,5月3日
16,Boston Celtics,41-40,27-13,14-27,27-24,14-16,7月9日,8月9日,12月6日,6月4日,6月4日,2月8日,28-24,13-16,8月7日,18-23,0-1,9月6日,5月9日,8月7日,8月4日,8月8日,3月5日
17,Dallas Mavericks,41-41,24-17,17-24,17-13,24-28,5月5日,6月4日,6月4日,7月11日,10月8日,7月9日,23-29,12月18日,5月8日,17-19,1月1日,6月8日,5月10日,7月8日,6月5日,11月5日,5月4日
18,Milwaukee Bucks,38-44,21-20,17-24,24-28,14-16,11月7日,7月9日,6月12日,4月6日,7月3日,3月7日,26-25,12月19日,7月5日,13-25,,7月7日,9月6日,8月7日,4月8日,7月9日,3月7日
19,Philadelphia 76ers,34-48,23-18,11月30日,22-30,12月18日,7月9日,7月11日,8月10日,3月7日,5月5日,4月6日,22-29,12月19日,4月5日,13-24,1-0,9月6日,4月11日,5月9日,3月8日,8月9日,4月5日
20,Toronto Raptors,34-48,21-20,13-28,22-30,12月18日,5月11日,8月10日,9月9日,4月6日,4月6日,4月6日,21-32,13-16,8月8日,16-22,0-1,4月12日,7月7日,5月10日,7月5日,4月11日,7月2日
21,Portland Trail Blazers,33-49,22-19,11月30日,15-15,18-34,5月5日,5月5日,5月5日,6月10日,5月13日,7月11日,25-28,8月21日,9月6日,13-24,1-0,5月10日,9月4日,8月8日,3月9日,7月9日,0-9
22,Minnesota Timberwolves,31-51,20-21,11月30日,14-16,17-35,4月6日,7月3日,3月7日,4月12日,5月13日,8月10日,19-31,12月20日,3月10日,15-26,,7月8日,7月5日,3月12日,3月10日,6月11日,5月5日
23,Detroit Pistons,29-53,18-23,11月30日,25-27,4月26日,6月12日,8月8日,11月7日,1月9日,2月8日,1月9日,21-33,8月20日,6月10日,15-29,0-1,5月11日,6月10日,6月7日,6月8日,1月13日,5月3日
24,Washington Wizards,29-53,22-19,7-34,15-37,14-16,5月13日,5月13日,5月11日,6月4日,4月6日,4月6日,15-36,14-17,6月9日,13-17,0-1,1月12日,3月11日,7月9日,7月5日,9月8日,2月7日
25,Sacramento Kings,28-54,20-21,8-33,14-16,14-38,4月6日,4月6日,6月4日,5月13日,7月9日,2月16日,19-35,9月19日,7月3日,12月31日,0-1,4月10日,7月8日,6月11日,3月9日,7月8日,1月7日
26,New Orleans Hornets,27-55,16-25,11月30日,12月18日,15-37,3月7日,5月5日,4月6日,5月13日,5月13日,5月11日,19-34,8月21日,7月5日,10月27日,0-1,4月9日,3月13日,8月8日,5月8日,6月9日,1月7日
27,Phoenix Suns,25-57,17-24,8-33,8月22日,17-35,1月9日,4月6日,3月7日,5月13日,5月11日,7月11日,17-36,8月21日,6月8日,10月31日,0-1,7月9日,4月11日,5月9日,4月9日,3月12日,2月6日
28,Cleveland Cavaliers,24-58,14-27,10月31日,18-34,6月24日,5月13日,3月13日,10月8日,3月7日,2月8日,1月9日,16-37,8月21日,6月11日,7月27日,1-0,3月12日,3月13日,6月8日,7月5日,2月12日,2月8日
29,Charlotte Bobcats,21-61,15-26,6-35,18-34,3月27日,6月12日,6月12日,6月10日,2月8日,0-10,1月9日,12-40,9月21日,6月6日,6-37,,7月8日,1月15日,3月11日,2月10日,4月12日,4月5日
30,Orlando Magic,20-62,12月29日,8-33,10-42,10月20日,2月16日,5月13日,3月13日,3月7日,6月4日,1月9日,15-37,5月25日,2月9日,8月30日,,5月10日,7月9日,2月12日,2月11日,3月13日,1月7日
